超大宏基因组数据集CuratedMetagenomicData
…
suppressPackageStartupMessages(library(curatedMetagenomicData))

## Warning: package 'dplyr' was built under R version 3.4.2

## Warning: package 'BiocGenerics' was built under R version 3.4.1

## Warning: package 'ExperimentHub' was built under R version 3.4.1

## Warning: package 'AnnotationHub' was built under R version 3.4.2

查看metadata

combined_metadata

## # A tibble: 6,058 x 80
##     dataset_name      sampleID subjectID body_site antibiotics_current_use
##            <chr>         <chr>     <chr>     <chr>                   <chr>
##  1 AsnicarF_2017 MV_FEI1_t1Q14   MV_FEI1     stool                    <NA>
##  2 AsnicarF_2017 MV_FEI2_t1Q14   MV_FEI2     stool                    <NA>
##  3 AsnicarF_2017 MV_FEI3_t1Q14   MV_FEI3     stool                    <NA>
##  4 AsnicarF_2017 MV_FEI4_t1Q14   MV_FEI4     stool                    <NA>
##  5 AsnicarF_2017 MV_FEI4_t2Q15   MV_FEI4     stool                    <NA>
##  6 AsnicarF_2017 MV_FEI5_t1Q14   MV_FEI5     stool                    <NA>
##  7 AsnicarF_2017 MV_FEI5_t2Q14   MV_FEI5     stool                    <NA>
##  8 AsnicarF_2017 MV_FEI5_t3Q15   MV_FEI5     stool                    <NA>
##  9 AsnicarF_2017 MV_FEM1_t1Q14   MV_FEM1     stool                    <NA>
## 10 AsnicarF_2017 MV_FEM2_t1Q14   MV_FEM2     stool                    <NA>
## # ... with 6,048 more rows, and 75 more variables: study_condition <chr>,
## #   disease <chr>, age <int>, infant_age <int>, age_category <chr>,
## #   gender <chr>, country <chr>, non_westernized <chr>,
## #   sequencing_platform <chr>, DNA_extraction_kit <chr>, PMID <chr>,
## #   number_reads <int>, number_bases <dbl>, minimum_read_length <int>,
## #   median_read_length <dbl>, pregnant <chr>, lactating <chr>,
## #   NCBI_accession <chr>, BMI <dbl>, antibiotics_family <chr>,
## #   momeducat <int>, alcohol <chr>, `flg-genotype` <chr>,
## #   disease_subtype <chr>, hdl <dbl>, triglycerides <dbl>, hba1c <dbl>,
…
