有了绝对定量就完了？
…
读取表6，并预处理

cell_counts_dat <- read_excel('~/nature24460-s2.xlsx', sheet=6) %>%
  mutate(Cohort=gsub('[0-9]+','',Individual)) %>%
  mutate(Cell_count_avg=`Average cell count (per gram of frozen feces)`)

## Warning in strptime(x, format, tz = tz): unknown timezone 'default/Asia/
## Singapore'

cell_counts_dat

## # A tibble: 321 x 10
##    Individual Cohort   Day `Health status`
##         <chr>  <chr> <dbl>           <chr>
##  1       SC01     SC     1         Healthy
##  2       SC02     SC     1         Healthy
##  3       SC03     SC     1         Healthy
##  4       SC04     SC     1         Healthy
##  5       SC05     SC     1         Healthy
##  6       SC06     SC     1         Healthy
##  7       SC07     SC     1         Healthy
##  8       SC08     SC     1         Healthy
##  9       SC09     SC     1         Healthy
## 10       SC10     SC     1         Healthy
## # ... with 311 more rows, and 6 more variables: `Average cell count (per
## #   gram of fresh feces)` <chr>, `STDEV cell count (per gram of fresh
## #   feces)` <chr>, `Average cell count (per gram of frozen feces)` <dbl>,
## #   `STDEV cell count (per gram of frozen feces)` <chr>, Enterotype <chr>,
## #   Cell_count_avg <dbl>
…
